Influenza Project - Machine Learning Models
…
4. Tuning Using Cross-Validation and the tune_grid() function

#tune the model with previously specified cross-validation and RMSE as target metric
tree_res <- tree_wflow %>%
                tune::tune_grid(resamples = folds,
                                grid = tree_grid,
                                control = control_grid(verbose = TRUE),
                                metrics = yardstick::metric_set(rmse))

#collect metrics
tree_res %>% workflowsets::collect_metrics()

## # A tibble: 125 x 9
##    cost_complexity tree_depth min_n .metric .estimator  mean     n std_err
##              <dbl>      <int> <int> <chr>   <chr>      <dbl> <int>   <dbl>
##  1    0.0000000001          1     2 rmse    standard    1.19    25  0.0181
##  2    0.0000000178          1     2 rmse    standard    1.19    25  0.0181
##  3    0.00000316            1     2 rmse    standard    1.19    25  0.0181
##  4    0.000562              1     2 rmse    standard    1.19    25  0.0181
##  5    0.1                   1     2 rmse    standard    1.21    25  0.0177
##  6    0.0000000001          4     2 rmse    standard    1.24    25  0.0204
##  7    0.0000000178          4     2 rmse    standard    1.24    25  0.0204
##  8    0.00000316            4     2 rmse    standard    1.24    25  0.0204
##  9    0.000562              4     2 rmse    standard    1.23    25  0.0205
## 10    0.1                   4     2 rmse    standard    1.21    25  0.0177
## # ... with 115 more rows, and 1 more variable: .config <chr>
…
