Influenza Project - TidyModels Analysis (Part 2)
…
#0 recipe steps?

#use function to prepare the recipe and train the model from the resulting predictors
nausea_fit <- nausea_wflow %>%
                parsnip::fit(data = train_data)

#create tibble for model fit using broom and extract
nausea_fit %>%
  workflowsets::extract_fit_parsnip() %>%
  broom::tidy()

## # A tibble: 38 x 5
##    term                 estimate std.error statistic p.value
##    <chr>                   <dbl>     <dbl>     <dbl>   <dbl>
##  1 (Intercept)             1.63      9.40      0.173  0.862 
##  2 SwollenLymphNodesYes   -0.241     0.232    -1.04   0.298 
##  3 ChestCongestionYes      0.219     0.257     0.853  0.394 
##  4 ChillsSweatsYes         0.115     0.332     0.346  0.729 
##  5 NasalCongestionYes      0.560     0.311     1.80   0.0713
##  6 CoughYNYes             -0.705     0.611    -1.15   0.249 
##  7 SneezeYes               0.117     0.248     0.473  0.636 
##  8 FatigueYes              0.177     0.438     0.403  0.687 
##  9 SubjectiveFeverYes      0.229     0.264     0.868  0.385 
## 10 HeadacheYes             0.435     0.352     1.24   0.216 
## # ... with 28 more rows

#create tibble for model fit using broom and extract
#use mutate_if to reduce the number of decimal places
nausea_tibble <- nausea_fit %>%
                  workflowsets::extract_fit_parsnip() %>%
                  broom::tidy() %>%
                  dplyr::mutate_if(is.numeric, round, 3)
nausea_tibble

## # A tibble: 38 x 5
##    term                 estimate std.error statistic p.value
##    <chr>                   <dbl>     <dbl>     <dbl>   <dbl>
##  1 (Intercept)             1.63      9.40      0.173   0.862
##  2 SwollenLymphNodesYes   -0.241     0.232    -1.04    0.298
##  3 ChestCongestionYes      0.219     0.257     0.853   0.394
##  4 ChillsSweatsYes         0.115     0.332     0.346   0.729
##  5 NasalCongestionYes      0.56      0.311     1.80    0.071
##  6 CoughYNYes             -0.705     0.611    -1.15    0.249
##  7 SneezeYes               0.117     0.248     0.473   0.636
##  8 FatigueYes              0.177     0.438     0.403   0.687
##  9 SubjectiveFeverYes      0.229     0.264     0.868   0.385
## 10 HeadacheYes             0.435     0.352     1.24    0.216
## # ... with 28 more rows

Model 1: All Predictors

Task: Examine the predictions, ROC and ROC-AUC for the data. Apply it to both the training and test data. The code for this section comes from the “Use a trained workflow” portion of the Tidyverse Tutorial

#predict the nausea variable using the test data
stats::predict(nausea_fit, test_data)

## Warning in predict.lm(object, newdata, se.fit, scale = 1, type = if (type == :
## prediction from a rank-deficient fit may be misleading

## # A tibble: 183 x 1
##    .pred_class
##    <fct>      
##  1 No         
##  2 No         
##  3 No         
##  4 No         
##  5 No         
##  6 Yes        
##  7 Yes        
##  8 No         
##  9 No         
## 10 Yes        
## # ... with 173 more rows
…
## # A tibble: 1 x 3
##   .metric .estimator .estimate
##   <chr>   <chr>          <dbl>
## 1 roc_auc binary         0.724

#ROC-AUC = 0.724
#Suggests the model may be useful in predicting the Nausea outcome

#predict the nausea variable using the training data
stats::predict(nausea_fit, train_data)

## Warning in predict.lm(object, newdata, se.fit, scale = 1, type = if (type == :
## prediction from a rank-deficient fit may be misleading

## # A tibble: 547 x 1
##    .pred_class
##    <fct>      
##  1 No         
##  2 Yes        
##  3 No         
##  4 No         
##  5 Yes        
##  6 No         
##  7 No         
##  8 No         
##  9 No         
## 10 No         
## # ... with 537 more rows
…
## # A tibble: 2 x 5
##   term         estimate std.error statistic p.value
##   <chr>           <dbl>     <dbl>     <dbl>   <dbl>
## 1 (Intercept)    -0.79      0.172     -4.59   0    
## 2 RunnyNoseYes    0.188     0.202      0.93   0.352

Logistic Model Comparison

Now examine the predictions, ROC and ROC-AUC for the data. Apply it to both the training and test data.

#predict the nausea variable using the test data
stats::predict(nausea_fit_RN, test_data)

## # A tibble: 183 x 1
##    .pred_class
##    <fct>      
##  1 No         
##  2 No         
##  3 No         
##  4 No         
##  5 No         
##  6 No         
##  7 No         
##  8 No         
##  9 No         
## 10 No         
## # ... with 173 more rows
…
## # A tibble: 1 x 3
##   .metric .estimator .estimate
##   <chr>   <chr>          <dbl>
## 1 roc_auc binary         0.466

#ROC-AUC = 0.466
#Suggests the model may not be that useful in predicting the Nausea outcome

#predict the nausea variable using the training data
stats::predict(nausea_fit_RN, train_data)

## # A tibble: 547 x 1
##    .pred_class
##    <fct>      
##  1 No         
##  2 No         
##  3 No         
##  4 No         
##  5 No         
##  6 No         
##  7 No         
##  8 No         
##  9 No         
## 10 No         
## # ... with 537 more rows
…
#use function to prepare the recipe and train the model from the resulting predictors
bt_fit <- bt_wflow %>%
                parsnip::fit(data = train_data)

#create tibble for model fit using broom and extract
bt_fit %>%
  workflowsets::extract_fit_parsnip() %>%
  broom::tidy()

## # A tibble: 38 x 5
##    term                 estimate std.error statistic    p.value
##    <chr>                   <dbl>     <dbl>     <dbl>      <dbl>
##  1 (Intercept)           97.7        0.345   284.    0         
##  2 SwollenLymphNodesYes  -0.191      0.108    -1.77  0.0779    
##  3 ChestCongestionYes     0.128      0.116     1.10  0.272     
##  4 ChillsSweatsYes        0.196      0.148     1.32  0.188     
##  5 NasalCongestionYes    -0.163      0.137    -1.19  0.233     
##  6 CoughYNYes             0.380      0.289     1.31  0.189     
##  7 SneezeYes             -0.471      0.114    -4.13  0.0000425 
##  8 FatigueYes             0.354      0.187     1.89  0.0592    
##  9 SubjectiveFeverYes     0.558      0.119     4.70  0.00000338
## 10 HeadacheYes            0.0838     0.151     0.554 0.580     
## # ... with 28 more rows

#create tibble for model fit using broom and extract
#use mutate_if to reduce the number of decimal places
#increase number of decimal places to see significant p-values
bt_tibble <- bt_fit %>%
                  workflowsets::extract_fit_parsnip() %>%
                  broom::tidy() %>%
                  dplyr::mutate_if(is.numeric, round, 6)
bt_tibble

## # A tibble: 38 x 5
##    term                 estimate std.error statistic  p.value
##    <chr>                   <dbl>     <dbl>     <dbl>    <dbl>
##  1 (Intercept)           97.7        0.345   284.    0       
##  2 SwollenLymphNodesYes  -0.191      0.108    -1.77  0.0779  
##  3 ChestCongestionYes     0.128      0.116     1.10  0.272   
##  4 ChillsSweatsYes        0.196      0.148     1.32  0.188   
##  5 NasalCongestionYes    -0.163      0.137    -1.19  0.233   
##  6 CoughYNYes             0.380      0.289     1.31  0.189   
##  7 SneezeYes             -0.471      0.114    -4.13  0.000042
##  8 FatigueYes             0.354      0.187     1.89  0.0592  
##  9 SubjectiveFeverYes     0.558      0.119     4.70  0.000003
## 10 HeadacheYes            0.0838     0.151     0.554 0.580   
## # ... with 28 more rows

## Warning in predict.lm(object = object$fit, newdata = new_data, type =
## "response"): prediction from a rank-deficient fit may be misleading

## # A tibble: 183 x 1
##    .pred
##    <dbl>
##  1  99.3
##  2  99.0
##  3  99.7
##  4  98.7
##  5  99.0
##  6  99.5
##  7  99.3
##  8  98.9
##  9  99.6
## 10  98.8
## # ... with 173 more rows
…
## # A tibble: 2 x 5
##   term         estimate std.error statistic p.value
##   <chr>           <dbl>     <dbl>     <dbl>   <dbl>
## 1 (Intercept)    99.1      0.0964   1028.    0     
## 2 RunnyNoseYes   -0.261    0.114      -2.29  0.0225

#predict the nausea variable using the test data
stats::predict(rn_fit, test_data)

## # A tibble: 183 x 1
##    .pred
##    <dbl>
##  1  99.1
##  2  98.9
##  3  98.9
##  4  98.9
##  5  99.1
##  6  99.1
##  7  98.9
##  8  99.1
##  9  99.1
## 10  99.1
## # ... with 173 more rows
…
