Influenza Project - TidyModels Analysis (Part 1)
…
lm_fit2_summary

## # A tibble: 38 x 5
##    term                 estimate std.error statistic   p.value
##    <chr>                   <dbl>     <dbl>     <dbl>     <dbl>
##  1 (Intercept)           97.9       0.304   322.     0        
##  2 SwollenLymphNodesYes  -0.165     0.0920   -1.80   0.0727   
##  3 ChestCongestionYes     0.0873    0.0975    0.895  0.371    
##  4 ChillsSweatsYes        0.201     0.127     1.58   0.114    
##  5 NasalCongestionYes    -0.216     0.114    -1.90   0.0584   
##  6 CoughYNYes             0.314     0.241     1.30   0.193    
##  7 SneezeYes             -0.362     0.0983   -3.68   0.000249 
##  8 FatigueYes             0.265     0.161     1.65   0.0996   
##  9 SubjectiveFeverYes     0.437     0.103     4.22   0.0000271
## 10 HeadacheYes            0.0115    0.125     0.0913 0.927    
## # ... with 28 more rows
…
log_fit2_summary

## # A tibble: 38 x 5
##    term                 estimate std.error statistic p.value
##    <chr>                   <dbl>     <dbl>     <dbl>   <dbl>
##  1 (Intercept)             1.25      7.83     0.0285  0.977 
##  2 SwollenLymphNodesYes    0.778     0.196   -1.28    0.200 
##  3 ChestCongestionYes      1.32      0.213    1.30    0.195 
##  4 ChillsSweatsYes         1.32      0.288    0.952   0.341 
##  5 NasalCongestionYes      1.53      0.255    1.67    0.0944
##  6 CoughYNYes              0.869     0.519   -0.271   0.787 
##  7 SneezeYes               1.19      0.210    0.840   0.401 
##  8 FatigueYes              1.26      0.372    0.616   0.538 
##  9 SubjectiveFeverYes      1.32      0.225    1.23    0.218 
## 10 HeadacheYes             1.39      0.285    1.16    0.245 
## # ... with 28 more rows
…
