Tidy Tuesday Exercise (Module 13)
…
4. Tuning Using Cross-Validation and the tune_grid() function

#tune the model with previously specified cross-validation and RMSE as target metric
tree_res <- tree_wflow %>%
                tune::tune_grid(resamples = folds,
                                grid = tree_grid,
                                control = control_grid(verbose = TRUE),
                                metrics = yardstick::metric_set(rmse))

#collect metrics
tree_res %>% workflowsets::collect_metrics()

## # A tibble: 125 x 9
##    cost_complexity tree_depth min_n .metric .estimator  mean     n std_err
##              <dbl>      <int> <int> <chr>   <chr>      <dbl> <int>   <dbl>
##  1    0.0000000001          1     2 rmse    standard    17.1    25   0.412
##  2    0.0000000178          1     2 rmse    standard    17.1    25   0.412
##  3    0.00000316            1     2 rmse    standard    17.1    25   0.412
##  4    0.000562              1     2 rmse    standard    17.1    25   0.412
##  5    0.1                   1     2 rmse    standard    17.1    25   0.412
##  6    0.0000000001          4     2 rmse    standard    16.4    25   0.608
##  7    0.0000000178          4     2 rmse    standard    16.4    25   0.608
##  8    0.00000316            4     2 rmse    standard    16.4    25   0.608
##  9    0.000562              4     2 rmse    standard    16.4    25   0.609
## 10    0.1                   4     2 rmse    standard    16.0    25   0.404
## # ... with 115 more rows, and 1 more variable: .config <chr>
…
#collect metrics
BT_res %>% workflowsets::collect_metrics()

## # A tibble: 125 x 9
##    cost_complexity tree_depth min_n .metric .estimator  mean     n std_err
##              <dbl>      <int> <int> <chr>   <chr>      <dbl> <int>   <dbl>
##  1    0.0000000001          1     2 rmse    standard    15.5    10   0.409
##  2    0.0000000178          1     2 rmse    standard    15.5    10   0.377
##  3    0.00000316            1     2 rmse    standard    15.6    10   0.393
##  4    0.000562              1     2 rmse    standard    15.6    10   0.351
##  5    0.1                   1     2 rmse    standard    15.5    10   0.301
##  6    0.0000000001          4     2 rmse    standard    15.2    10   0.726
##  7    0.0000000178          4     2 rmse    standard    15.0    10   0.508
##  8    0.00000316            4     2 rmse    standard    14.8    10   0.659
##  9    0.000562              4     2 rmse    standard    15.1    10   0.541
## 10    0.1                   4     2 rmse    standard    14.9    10   0.395
## # ... with 115 more rows, and 1 more variable: .config <chr>
…
